…
    ## # A tibble: 0 × 6
    ## # ℹ 6 variables: address <chr>, city <chr>, state <chr>, zip <chr>,
    ## #   longitude <dbl>, latitude <dbl>

### Exercise 6

``` r
dennys %>%
  mutate(country = "US")
```

    ## # A tibble: 1,643 × 7
    ##    address                        city    state zip   longitude latitude country
    ##    <chr>                          <chr>   <chr> <chr>     <dbl>    <dbl> <chr>  
    ##  1 2900 Denali                    Anchor… AK    99503    -150.      61.2 US     
    ##  2 3850 Debarr Road               Anchor… AK    99508    -150.      61.2 US     
    ##  3 1929 Airport Way               Fairba… AK    99701    -148.      64.8 US     
    ##  4 230 Connector Dr               Auburn  AL    36849     -85.5     32.6 US     
    ##  5 224 Daniel Payne Drive N       Birmin… AL    35207     -86.8     33.6 US     
    ##  6 900 16th St S, Commons on Gree Birmin… AL    35294     -86.8     33.5 US     
    ##  7 5931 Alabama Highway, #157     Cullman AL    35056     -86.9     34.2 US     
    ##  8 2190 Ross Clark Circle         Dothan  AL    36301     -85.4     31.2 US     
    ##  9 900 Tyson Rd                   Hope H… AL    36043     -86.4     32.2 US     
    ## 10 4874 University Drive          Huntsv… AL    35816     -86.7     34.7 US     
    ## # ℹ 1,633 more rows
…
### Exercise 8

``` r
laquinta %>%
  mutate(country = case_when(state %in% state.abb ~ "United States", state %in% c("ON", "BC") ~ "Canada", state == "ANT" ~ "Colombia", state %in% c("AG", "CH", "PU", "VE", "SL") ~ "Mexico"))
```

    ## # A tibble: 909 × 7
    ##    address                          city  state zip   longitude latitude country
    ##    <chr>                            <chr> <chr> <chr>     <dbl>    <dbl> <chr>  
    ##  1 793 W. Bel Air Avenue            "\nA… MD    21001     -76.2     39.5 United…
    ##  2 3018 CatClaw Dr                  "\nA… TX    79606     -99.8     32.4 United…
    ##  3 3501 West Lake Rd                "\nA… TX    79601     -99.7     32.5 United…
    ##  4 184 North Point Way              "\nA… GA    30102     -84.7     34.1 United…
    ##  5 2828 East Arlington Street       "\nA… OK    74820     -96.6     34.8 United…
    ##  6 14925 Landmark Blvd              "\nA… TX    75254     -96.8     33.0 United…
    ##  7 Carretera Panamericana Sur KM 12 "\nA… AG    20345    -102.      21.8 Mexico 
    ##  8 909 East Frontage Rd             "\nA… TX    78516     -98.1     26.2 United…
    ##  9 2116 Yale Blvd Southeast         "\nA… NM    87106    -107.      35.1 United…
    ## 10 7439 Pan American Fwy Northeast  "\nA… NM    87109    -107.      35.2 United…
    ## # ℹ 899 more rows
…
#exists(country)
laquinta <- laquinta %>%
  filter(state %in% states$abbreviation)
```

### Exercise 9

``` r
laquinta %>%
  count(state, sort = TRUE)
```

    ## # A tibble: 48 × 2
    ##    state     n
    ##    <chr> <int>
    ##  1 TX      237
    ##  2 FL       74
    ##  3 CA       56
    ##  4 GA       41
    ##  5 TN       30
    ##  6 OK       29
    ##  7 LA       28
    ##  8 CO       27
    ##  9 NM       19
    ## 10 NY       19
    ## # ℹ 38 more rows

``` r
dennys %>%
  count(state, sort = TRUE)
```

    ## # A tibble: 51 × 2
    ##    state     n
    ##    <chr> <int>
    ##  1 CA      403
    ##  2 TX      200
    ##  3 FL      140
    ##  4 AZ       83
    ##  5 IL       56
    ##  6 NY       56
    ##  7 WA       49
    ##  8 OH       44
    ##  9 MO       42
    ## 10 PA       40
    ## # ℹ 41 more rows
…
